{
  "operators": [
    {
      "name": "Google",
      "email": [
        "google-ct-logs@googlegroups.com"
      ],
      "logs": [
        {
          "description": "Google 'Argon2022' log",
          "log_id": "KXm+8J45OSHwVnOfY6V35b5XfZxgCvj5TV0mXCVdx4Q=",
          "key": "MFkwEwYHKoZIzj0CAQYIKoZIzj0DAQcDQgAEeIPc6fGmuBg6AJkv/z7NFckmHvf/OqmjchZJ6wm2qN200keRDg352dWpi7CHnSV51BpQYAj1CQY5JuRAwrrDwg==",
          "url": "https://ct.googleapis.com/logs/argon2022/",
          "mmd": 86400,
          "state": {
            "usable": {
              "timestamp": "2019-12-17T18:38:01Z"
            }
          },
          "temporal_interval": {
            "start_inclusive": "2022-01-01T00:00:00Z",
            "end_exclusive": "2023-01-01T00:00:00Z"
          }
        },
        {
          "description": "Google 'Argon2023' log",
          "log_id": "6D7Q2j71BjUy51covIlryQPTy9ERa+zraeF3fW0GvW4=",
          "key": "MFkwEwYHKoZIzj0CAQYIKoZIzj0DAQcDQgAE0JCPZFJOQqyEti5M8j13ALN3CAVHqkVM4yyOcKWCu2yye5yYeqDpEXYoALIgtM3TmHtNlifmt+4iatGwLpF3eA==",
          "url": "https://ct.googleapis.com/logs/argon2023/",
          "mmd": 86400,
          "state": {
            "usable": {
              "timestamp": "2019-12-17T18:38:01Z"
            }
          },
          "temporal_interval": {
            "start_inclusive": "2023-01-01T00:00:00Z",
            "end_exclusive": "2024-01-01T00:00:00Z"
          }
        },
        {
          "description": "Google 'Xenon2022' log",
          "log_id": "RqVV63X6kSAwtaKJafTzfREsQXS+/Um4havy/HD+bUc=",
          "key": "MFkwEwYHKoZIzj0CAQYIKoZIzj0DAQcDQgAE+WS9FSxAYlCVEzg8xyGwOrmPonoV14nWjjETAIdZvLvukPzIWBMKv6tDNlQjpIHNrUcUt1igRPpqoKDXw2MeKw==",
          "url": "https://ct.googleapis.com/logs/xenon2022/",
          "mmd": 86400,
          "state": {
            "usable": {
              "timestamp": "2019-06-17T21:23:01Z"
            }
          },
          "temporal_interval": {
            "start_inclusive": "2022-01-01T00:00:00Z",
            "end_exclusive": "2023-01-01T00:00:00Z"
          }
        },
        {
          "description": "Google 'Xenon2023' log",
          "log_id": "rfe++nz/EMiLnT2cHj4YarRnKV3PsQwkyoWGNOvcgoo=",
          "key": "MFkwEwYHKoZIzj0CAQYIKoZIzj0DAQcDQgAEchY+C+/vzj5g3ZXLY3q5qY1Kb2zcYYCmRV4vg6yU84WI0KV00HuO/8XuQqLwLZPjwtCymeLhQunSxgAnaXSuzg==",
          "url": "https://ct.googleapis.com/logs/xenon2023/",
          "mmd": 86400,
          "state": {
            "usable": {
              "timestamp": "2019-12-17T18:38:01Z"
            }
          },
          "temporal_interval": {
            "start_inclusive": "2023-01-01T00:00:00Z",
            "end_exclusive": "2024-01-01T00:00:00Z"
          }
        },
        {
          "description": "Google 'Icarus' log",
          "log_id": "KTxRllTIOWW6qlD8WAfUt2+/WHopctykwwz05UVH9Hg=",
          "key": "MFkwEwYHKoZIzj0CAQYIKoZIzj0DAQcDQgAETtK8v7MICve56qTHHDhhBOuV4IlUaESxZryCfk9QbG9co/CqPvTsgPDbCpp6oFtyAHwlDhnvr7JijXRD9Cb2FA==",
          "url": "https://ct.googleapis.com/icarus/",
          "mmd": 86400,
          "state": {
            "readonly": {
              "timestamp": "2022-05-03T18:52:50Z",
              "final_tree_head": {
                "sha256_root_hash": "D1H4wAJmq0MRCeLfeOtrsZ9Am015anO5MkeasNhnQWI=",
                "tree_size": 762430819
              }
            }
          }
        },
        {
          "description": "Google 'Pilot' log",
          "log_id": "pLkJkLQYWBSHuxOizGdwCjw1mAT5G9+443fNDsgN3BA=",
          "key": "MFkwEwYHKoZIzj0CAQYIKoZIzj0DAQcDQgAEfahLEimAoz2t01p3uMziiLOl/fHTDM0YDOhBRuiBARsV4UvxG2LdNgoIGLrtCzWE0J5APC2em4JlvR8EEEFMoA==",
          "url": "https://ct.googleapis.com/pilot/",
          "mmd": 86400,
          "state": {
            "readonly": {
              "timestamp": "2022-05-03T18:52:50Z",
              "final_tree_head": {
                "sha256_root_hash": "57gZIfRLpXho89LUBCQeZUDIHx8gA9PL1M4hc71W90E=",
                "tree_size": 1077336645
              }
            }
          }
        },
        {
          "description": "Google 'Rocketeer' log",
          "log_id": "7ku9t3XOYLrhQmkfq+GeZqMPfl+wctiDAMR7iXqo/cs=",
          "key": "MFkwEwYHKoZIzj0CAQYIKoZIzj0DAQcDQgAEIFsYyDzBi7MxCAC/oJBXK7dHjG+1aLCOkHjpoHPqTyghLpzA9BYbqvnV16mAw04vUjyYASVGJCUoI3ctBcJAeg==",
          "url": "https://ct.googleapis.com/rocketeer/",
          "mmd": 86400,
          "state": {
            "readonly": {
              "timestamp": "2022-05-03T18:52:50Z",
              "final_tree_head": {
                "sha256_root_hash": "Fj49ZSzvzvjNlEOCVhdkwpTlP7hyp82SFsmfWPScpv0=",
                "tree_size": 1117582774
              }
            }
          }
        },
        {
          "description": "Google 'Skydiver' log",
          "log_id": "u9nfvB+KcbWTlCOXqpJ7RzhXlQqrUugakJZkNo4e0YU=",
          "key": "MFkwEwYHKoZIzj0CAQYIKoZIzj0DAQcDQgAEEmyGDvYXsRJsNyXSrYc9DjHsIa2xzb4UR7ZxVoV6mrc9iZB7xjI6+NrOiwH+P/xxkRmOFG6Jel20q37hTh58rA==",
          "url": "https://ct.googleapis.com/skydiver/",
          "mmd": 86400,
          "state": {
            "readonly": {
              "timestamp": "2022-05-03T18:52:50Z",
              "final_tree_head": {
                "sha256_root_hash": "m8mPaxXwy+EdNwnfdsSWCKdhEk1bm/5Mp84ilMB5xvc=",
                "tree_size": 312892829
              }
            }
          }
        }
      ]
    },
    {
      "name": "Cloudflare",
      "email": [
        "ct-logs@cloudflare.com",
        "brendan@cloudflare.com",
        "nick@cloudflare.com",
        "pat@cloudflare.com"
      ],
      "logs": [
        {
          "description": "Cloudflare 'Nimbus2022' Log",
          "log_id": "QcjKsd8iRkoQxqE6CUKHXk4xixsD6+tLx2jwkGKWBvY=",
          "key": "MFkwEwYHKoZIzj0CAQYIKoZIzj0DAQcDQgAESLJHTlAycmJKDQxIv60pZG8g33lSYxYpCi5gteI6HLevWbFVCdtZx+m9b+0LrwWWl/87mkNN6xE0M4rnrIPA/w==",
          "url": "https://ct.cloudflare.com/logs/nimbus2022/",
          "mmd": 86400,
          "state": {
            "usable": {
              "timestamp": "2019-10-31T19:22:00Z"
            }
          },
          "temporal_interval": {
            "start_inclusive": "2022-01-01T00:00:00Z",
            "end_exclusive": "2023-01-01T00:00:00Z"
          }
        },
        {
          "description": "Cloudflare 'Nimbus2023' Log",
          "log_id": "ejKMVNi3LbYg6jjgUh7phBZwMhOFTTvSK8E6V6NS61I=",
          "key": "MFkwEwYHKoZIzj0CAQYIKoZIzj0DAQcDQgAEi/8tkhjLRp0SXrlZdTzNkTd6HqmcmXiDJz3fAdWLgOhjmv4mohvRhwXul9bgW0ODgRwC9UGAgH/vpGHPvIS1qA==",
          "url": "https://ct.cloudflare.com/logs/nimbus2023/",
          "mmd": 86400,
          "state": {
            "usable": {
              "timestamp": "2019-10-31T19:22:00Z"
            }
          },
          "temporal_interval": {
            "start_inclusive": "2023-01-01T00:00:00Z",
            "end_exclusive": "2024-01-01T00:00:00Z"
          }
        }
      ]
    },
    {
      "name": "DigiCert",
      "email": [
        "ctops@digicert.com"
      ],
      "logs": [
        {
          "description": "DigiCert Log Server",
          "log_id": "VhQGmi/XwuzT9eG9RLI+x0Z2ubyZEVzA75SYVdaJ0N0=",
          "key": "MFkwEwYHKoZIzj0CAQYIKoZIzj0DAQcDQgAEAkbFvhu7gkAW6MHSrBlpE1n4+HCFRkC5OLAjgqhkTH+/uzSfSl8ois8ZxAD2NgaTZe1M9akhYlrYkes4JECs6A==",
          "url": "https://ct1.digicert-ct.com/log/",
          "mmd": 86400,
          "state": {
            "retired": {
              "timestamp": "2022-01-24T00:00:00Z"
            }
          }
        },
        {
          "description": "DigiCert Log Server 2",
          "log_id": "h3W/51l8+IxDmV+9827/Vo1HVjb/SrVgwbTq/16ggw8=",
          "key": "MFkwEwYHKoZIzj0CAQYIKoZIzj0DAQcDQgAEzF05L2a4TH/BLgOhNKPoioYCrkoRxvcmajeb8Dj4XQmNY+gxa4Zmz3mzJTwe33i0qMVp+rfwgnliQ/bM/oFmhA==",
          "url": "https://ct2.digicert-ct.com/log/",
          "mmd": 86400,
          "state": {
            "retired": {
              "timestamp": "2020-05-04T00:00:40Z"
            }
          }
        },
        {
          "description": "DigiCert Yeti2022 Log",
          "log_id": "IkVFB1lVJFaWP6Ev8fdthuAjJmOtwEt/XcaDXG7iDwI=",
          "key": "MFkwEwYHKoZIzj0CAQYIKoZIzj0DAQcDQgAEn/jYHd77W1G1+131td5mEbCdX/1v/KiYW5hPLcOROvv+xA8Nw2BDjB7y+RGyutD2vKXStp/5XIeiffzUfdYTJg==",
          "url": "https://yeti2022.ct.digicert.com/log/",
          "mmd": 86400,
          "state": {
            "retired": {
              "timestamp": "2021-07-21T00:00:00Z"
            }
          },
          "temporal_interval": {
            "start_inclusive": "2022-01-01T00:00:00Z",
            "end_exclusive": "2023-01-01T00:00:00Z"
          }
        },
        {
          "description": "DigiCert Yeti2022-2 Log",
          "log_id": "BZwB0yDgB4QTlYBJjRF8kDJmr69yULWvO0akPhGEDUo=",
          "key": "MFkwEwYHKoZIzj0CAQYIKoZIzj0DAQcDQgAEHWlePwrycXfNnV3DNEkA7mB34XJ2dKh8XH0J8jIdBX4u/lsx1Tr9czRuSRROUFiWWsTH9L4FZKT31+WxbTMMww==",
          "url": "https://yeti2022-2.ct.digicert.com/log/",
          "mmd": 86400,
          "state": {
            "usable": {
              "timestamp": "2022-05-20T00:00:00Z"
            }
          },
          "temporal_interval": {
            "start_inclusive": "2022-01-01T00:00:00Z",
            "end_exclusive": "2023-01-01T00:00:00Z"
          }
        },
        {
          "description": "DigiCert Yeti2023 Log",
          "log_id": "Nc8ZG7+xbFe/D61MbULLu7YnICZR6j/hKu+oA8M71kw=",
          "key": "MFkwEwYHKoZIzj0CAQYIKoZIzj0DAQcDQgAEfQ0DsdWYitzwFTvG3F4Nbj8Nv5XIVYzQpkyWsU4nuSYlmcwrAp6m092fsdXEw6w1BAeHlzaqrSgNfyvZaJ9y0Q==",
          "url": "https://yeti2023.ct.digicert.com/log/",
          "mmd": 86400,
          "state": {
            "usable": {
              "timestamp": "2019-10-31T19:22:00Z"
            }
          },
          "temporal_interval": {
            "start_inclusive": "2023-01-01T00:00:00Z",
            "end_exclusive": "2024-01-01T00:00:00Z"
          }
        },
        {
          "description": "DigiCert Nessie2022 Log",
          "log_id": "UaOw9f0BeZxWbbg3eI8MpHrMGyfL956IQpoN/tSLBeU=",
          "key": "MFkwEwYHKoZIzj0CAQYIKoZIzj0DAQcDQgAEJyTdaAMoy/5jvg4RR019F2ihEV1McclBKMe2okuX7MCv/C87v+nxsfz1Af+p+0lADGMkmNd5LqZVqxbGvlHYcQ==",
          "url": "https://nessie2022.ct.digicert.com/log/",
          "mmd": 86400,
          "state": {
            "usable": {
              "timestamp": "2019-05-09T22:11:02Z"
            }
          },
          "temporal_interval": {
            "start_inclusive": "2022-01-01T00:00:00Z",
            "end_exclusive": "2023-01-01T00:00:00Z"
          }
        },
        {
          "description": "DigiCert Nessie2023 Log",
          "log_id": "s3N3B+GEUPhjhtYFqdwRCUp5LbFnDAuH3PADDnk2pZo=",
          "key": "MFkwEwYHKoZIzj0CAQYIKoZIzj0DAQcDQgAEEXu8iQwSCRSf2CbITGpUpBtFVt8+I0IU0d1C36Lfe1+fbwdaI0Z5FktfM2fBoI1bXBd18k2ggKGYGgdZBgLKTg==",
          "url": "https://nessie2023.ct.digicert.com/log/",
          "mmd": 86400,
          "state": {
            "usable": {
              "timestamp": "2019-10-31T19:22:00Z"
            }
          },
          "temporal_interval": {
            "start_inclusive": "2023-01-01T00:00:00Z",
            "end_exclusive": "2024-01-01T00:00:00Z"
          }
        }
      ]
    },
    {
      "name": "Sectigo",
      "email": [
        "ctops@sectigo.com"
      ],
      "logs": [
        {
          "description": "Sectigo 'Sabre' CT log",
          "log_id": "VYHUwhaQNgFK6gubVzxT8MDkOHhwJQgXL6OqHQcT0ww=",
          "key": "MFkwEwYHKoZIzj0CAQYIKoZIzj0DAQcDQgAE8m/SiQ8/xfiHHqtls9m7FyOMBg4JVZY9CgiixXGz0akvKD6DEL8S0ERmFe9U4ZiA0M4kbT5nmuk3I85Sk4bagA==",
          "url": "https://sabre.ct.comodo.com/",
          "mmd": 86400,
          "state": {
            "usable": {
              "timestamp": "2017-10-10T00:38:10Z"
            }
          }
        },
        {
          "description": "Sectigo 'Mammoth' CT log",
          "log_id": "b1N2rDHwMRnYmQCkURX/dxUcEdkCwQApBo2yCJo32RM=",
          "key": "MFkwEwYHKoZIzj0CAQYIKoZIzj0DAQcDQgAE7+R9dC4VFbbpuyOL+yy14ceAmEf7QGlo/EmtYU6DRzwat43f/3swtLr/L8ugFOOt1YU/RFmMjGCL17ixv66MZw==",
          "url": "https://mammoth.ct.comodo.com/",
          "mmd": 86400,
          "state": {
            "usable": {
              "timestamp": "2017-10-10T00:38:10Z"
            }
          }
        }
      ]
    },
    {
      "name": "Let's Encrypt",
      "email": [
        "sre@letsencrypt.org"
      ],
      "logs": [
        {
          "description": "Let's Encrypt 'Oak2022' log",
          "log_id": "36Veq2iCTx9sre64X04+WurNohKkal6OOxLAIERcKnM=",
          "key": "MFkwEwYHKoZIzj0CAQYIKoZIzj0DAQcDQgAEhjyxDVIjWt5u9sB/o2S8rcGJ2pdZTGA8+IpXhI/tvKBjElGE5r3de4yAfeOPhqTqqc+o7vPgXnDgu/a9/B+RLg==",
          "url": "https://oak.ct.letsencrypt.org/2022/",
          "mmd": 86400,
          "state": {
            "usable": {
              "timestamp": "2020-01-27T18:18:26Z"
            }
          },
          "temporal_interval": {
            "start_inclusive": "2022-01-01T00:00:00Z",
            "end_exclusive": "2023-01-07T00:00:00Z"
          }
        },
        {
          "description": "Let's Encrypt 'Oak2023' log",
          "log_id": "tz77JN+cTbp18jnFulj0bF38Qs96nzXEnh0JgSXttJk=",
          "key": "MFkwEwYHKoZIzj0CAQYIKoZIzj0DAQcDQgAEsz0OeL7jrVxEXJu+o4QWQYLKyokXHiPOOKVUL3/TNFFquVzDSer7kZ3gijxzBp98ZTgRgMSaWgCmZ8OD74mFUQ==",
          "url": "https://oak.ct.letsencrypt.org/2023/",
          "mmd": 86400,
          "state": {
            "usable": {
              "timestamp": "2021-03-01T19:24:00Z"
            }
          },
          "temporal_interval": {
            "start_inclusive": "2023-01-01T00:00:00Z",
            "end_exclusive": "2024-01-07T00:00:00Z"
          }
        }
      ]
    },
    {
      "name": "TrustAsia",
      "email": [
        "trustasia-ct-logs@trustasia.com"
      ],
      "logs": [
        {
          "description": "Trust Asia Log2022",
          "log_id": "w2X5s2VPMoPHnamOk9dBj1ure+MlLJjh0vBLuetCfSM=",
          "key": "MFkwEwYHKoZIzj0CAQYIKoZIzj0DAQcDQgAEu1LyFs+SC8555lRtwjdTpPX5OqmzBewdvRbsMKwu+HliNRWOGtgWLuRIa/bGE/GWLlwQ/hkeqBi4Dy3DpIZRlw==",
          "url": "https://ct.trustasia.com/log2022/",
          "mmd": 86400,
          "state": {
            "usable": {
              "timestamp": "2021-03-01T19:24:00Z"
            }
          },
          "temporal_interval": {
            "start_inclusive": "2022-01-01T00:00:00Z",
            "end_exclusive": "2023-01-01T00:00:00Z"
          }
        },
        {
          "description": "Trust Asia Log2023",
          "log_id": "6H6nZgvCbPYALvVyXT/g4zG5OTu5L79Y6zuQSdr1Q1o=",
          "key": "MFkwEwYHKoZIzj0CAQYIKoZIzj0DAQcDQgAEpBFS2xdBTpDUVlESMFL4mwPPTJ/4Lji18Vq6+ji50o8agdqVzDPsIShmxlY+YDYhINnUrF36XBmhBX3+ICP89Q==",
          "url": "https://ct.trustasia.com/log2023/",
          "mmd": 86400,
          "state": {
            "usable": {
              "timestamp": "2021-03-01T19:24:00Z"
            }
          },
          "temporal_interval": {
            "start_inclusive": "2023-01-01T00:00:00Z",
            "end_exclusive": "2024-01-01T00:00:00Z"
          }
        }
      ]
    }
  ]
}